Day2 - Summarizing Data – My_OG_Website
…
    max, mean, min, prod, range, sample, sum

library(kableExtra)

Attaching package: 'kableExtra'

The following object is masked from 'package:dplyr':

    group_rows

I will be looking at the new ‘mpg’ dataset now :

mpg

# A tibble: 234 × 11
   manufacturer model      displ  year   cyl trans drv     cty   hwy fl    class
   <chr>        <chr>      <dbl> <int> <int> <chr> <chr> <int> <int> <chr> <chr>
 1 audi         a4           1.8  1999     4 auto… f        18    29 p     comp…
 2 audi         a4           1.8  1999     4 manu… f        21    29 p     comp…
 3 audi         a4           2    2008     4 manu… f        20    31 p     comp…
 4 audi         a4           2    2008     4 auto… f        21    30 p     comp…
 5 audi         a4           2.8  1999     6 auto… f        16    26 p     comp…
 6 audi         a4           2.8  1999     6 manu… f        18    26 p     comp…
 7 audi         a4           3.1  2008     6 auto… f        18    27 p     comp…
 8 audi         a4 quattro   1.8  1999     4 manu… 4        18    26 p     comp…
 9 audi         a4 quattro   1.8  1999     4 auto… 4        16    25 p     comp…
10 audi         a4 quattro   2    2008     4 manu… 4        20    28 p     comp…
# ℹ 224 more rows
…
Rows: 1,924,665
Columns: 5
$ year <dbl> 1880, 1880, 1880, 1880, 1880, 1880, 1880, 1880, 1880, 1880, 1880,…
$ sex  <fct> F, F, F, F, F, F, F, F, F, F, F, F, F, F, F, F, F, F, F, F, F, F,…
$ name <chr> "Mary", "Anna", "Emma", "Elizabeth", "Minnie", "Margaret", "Ida",…
$ n    <int> 7065, 2604, 2003, 1939, 1746, 1578, 1472, 1414, 1320, 1288, 1258,…
$ prop <dbl> 0.07238359, 0.02667896, 0.02052149, 0.01986579, 0.01788843, 0.016…

I’m randomly sampling 30 entries from the ‘babynames_modified’ dataset to get a quick look at some of the data.

babynames_modified %>% slice_sample(n=30)

# A tibble: 30 × 5
    year sex   name       n       prop
   <dbl> <fct> <chr>  <int>      <dbl>
 1  1998 M     Doyle     35 0.0000173 
 2  2002 M     Brenyn     6 0.0000029 
 3  1948 M     Miguel   382 0.000214  
 4  1900 F     Loyola     7 0.0000220 
 5  1988 M     Cruise    11 0.0000055 
 6  2010 F     Liam      22 0.0000112 
 7  2002 M     Deylan     5 0.00000242
 8  1975 M     Tommie   193 0.000119  
 9  1936 F     Iretha     7 0.0000065 
10  1969 M     Doreen     6 0.00000328
# ℹ 20 more rows
…
math_anxiety <- read_delim(file = "../../Data/MathAnxiety.csv", delim = ";")

Rows: 599 Columns: 6
── Column specification ────────────────────────────────────────────────────────
Delimiter: ";"
chr (2): Gender, Grade
dbl (3): AMAS, RCMAS, Arith
num (1): Age

ℹ Use `spec()` to retrieve the full column specification for this data.
ℹ Specify the column types or set `show_col_types = FALSE` to quiet this message.

math_anxiety

# A tibble: 599 × 6
     Age Gender Grade      AMAS RCMAS Arith
   <dbl> <chr>  <chr>     <dbl> <dbl> <dbl>
 1  1378 Boy    Secondary     9    20     6
 2  1407 Boy    Secondary    18     8     6
 3  1379 Girl   Secondary    23    26     5
 4  1428 Girl   Secondary    19    18     7
 5  1356 Boy    Secondary    23    20     1
 6  1350 Girl   Secondary    27    33     1
 7  1336 Boy    Secondary    22    23     4
 8  1393 Boy    Secondary    17    11     7
 9  1317 Girl   Secondary    28    32     2
10  1348 Boy    Secondary    20    30     6
# ℹ 589 more rows
…
