Online Class Monday – My_OG_Website
…
       min      max
x 77.57403 77.59507
y 12.91726 12.93989

# Using getbb command from the osmdata package
bbox_2 <- osmdata::getbb("Jayanagar, Bangalore, India")
bbox_2

       min      max
x 77.58528 77.58929
y 12.93650 12.94369

osmdata::available_features() %>% as_tibble()

# A tibble: 272 × 1
   value                  
   <chr>                  
 1 4wd_only               
 2 abandoned              
 3 abutters               
 4 access                 
 5 addr                   
 6 addr:city              
 7 addr:conscriptionnumber
 8 addr:country           
 9 addr:county            
10 addr:district          
# ℹ 262 more rows

available_tags(feature = "highway")

# A tibble: 56 × 2
   Key     Value              
   <chr>   <chr>              
 1 highway bridleway          
 2 highway bus_guideway       
 3 highway bus_stop           
 4 highway busway             
 5 highway construction       
 6 highway corridor           
 7 highway crossing           
 8 highway cycleway           
 9 highway cyclist_waiting_aid
10 highway elevator           
# ℹ 46 more rows

available_tags("amenity")

# A tibble: 137 × 2
   Key     Value          
   <chr>   <chr>          
 1 amenity animal_boarding
 2 amenity animal_breeding
 3 amenity animal_shelter 
 4 amenity animal_training
 5 amenity arts_centre    
 6 amenity atm            
 7 amenity baby_hatch     
 8 amenity baking_oven    
 9 amenity bank           
10 amenity bar            
# ℹ 127 more rows

available_tags("natural")

# A tibble: 49 × 2
   Key     Value        
   <chr>   <chr>        
 1 natural arch         
 2 natural arete        
 3 natural bare_rock    
 4 natural bay          
 5 natural beach        
 6 natural blockfield   
 7 natural blowhole     
 8 natural cape         
 9 natural cave_entrance
10 natural cliff        
# ℹ 39 more rows
…
