A3 - Tips Dataset – My_OG_Website
…
Note

Since neither the Veg nor Non-veg Tip data is normally distributed, using a t-test wouldn’t be the right choice. Instead, it’s better to use the Wilcoxon test, which is a non-parametric method that’s ideal for comparing the medians when the data isn’t normally distributed.

Splitting the dataset by Preferance into Veg and Nonveg groups-

#Selecting only the Tip column for further testing
tips_modified %>% 
  filter(Preferance == "Veg") %>% 
  select(Tip) -> Veg

# Checking the "Veg" group Tip values
Veg

# A tibble: 30 × 1
     Tip
   <dbl>
 1     0
 2     0
 3    20
 4    35
 5    40
 6     0
 7     0
 8     0
 9    15
10   100
# ℹ 20 more rows

#Extracting the Tip values for the "Non-veg" group
tips_modified %>% 
  filter(Preferance == "Non-veg") %>% 
  select(Tip) -> Nonveg

# Checking the "Non-veg" group Tip values
Nonveg 

# A tibble: 30 × 1
     Tip
   <dbl>
 1     0
 2     0
 3     0
 4    20
 5     0
 6     0
 7     0
 8     0
 9     0
10    20
# ℹ 20 more rows
…
